G04 #@! TF.FileFunction,Copper,L2,Bot,Signal*
%FSLAX46Y46*%
G04 Gerber Fmt 4.6, Leading zero omitted, Abs format (unit mm)*
G04 Created by KiCad (PCBNEW 4.0.5) date Wed Jan  4 06:15:25 2017*
%MOMM*%
%LPD*%
G01*
G04 APERTURE LIST*
%ADD10C,0.100000*%
%ADD11R,2.032000X1.727200*%
%ADD12O,2.032000X1.727200*%
%ADD13O,7.000240X3.500120*%
%ADD14O,2.499360X1.600200*%
%ADD15C,0.600000*%
%ADD16C,0.600000*%
%ADD17C,0.250000*%
%ADD18C,0.200000*%
G04 APERTURE END LIST*
D10*
D11*
X185928000Y-54610000D03*
D12*
X185928000Y-57150000D03*
X185928000Y-59690000D03*
X185928000Y-62230000D03*
X185928000Y-64770000D03*
X185928000Y-67310000D03*
D13*
X163804600Y-66057780D03*
X163804600Y-55859680D03*
D14*
X168069260Y-60960000D03*
X168069260Y-63459360D03*
D15*
X183347000Y-58633000D03*
X172377000Y-51883000D03*
X169097000Y-51873000D03*
X163827000Y-51853000D03*
X156677000Y-69723000D03*
X156987000Y-51803000D03*
X178051460Y-51615340D03*
X181686200Y-52862480D03*
X184277000Y-69723000D03*
X179197000Y-69723000D03*
X174117000Y-69723000D03*
X169037000Y-69723000D03*
X163957000Y-69723000D03*
D16*
X185928000Y-57150000D02*
X184830000Y-57150000D01*
X184830000Y-57150000D02*
X183347000Y-58633000D01*
X163804600Y-55859680D02*
X163804600Y-51875400D01*
D17*
X156987000Y-51803000D02*
X163777000Y-51803000D01*
X163777000Y-51803000D02*
X163827000Y-51853000D01*
D16*
X163804600Y-51875400D02*
X163827000Y-51853000D01*
D17*
X163957000Y-69723000D02*
X163957000Y-66210180D01*
X163957000Y-66210180D02*
X163804600Y-66057780D01*
X174117000Y-69723000D02*
X179197000Y-69723000D01*
X163957000Y-69723000D02*
X169037000Y-69723000D01*
D18*
G36*
X187993000Y-70645000D02*
X155923000Y-70645000D01*
X155923000Y-66443417D01*
X159939346Y-66443417D01*
X160049010Y-66834379D01*
X160498863Y-67542747D01*
X161185554Y-68025042D01*
X162004540Y-68207840D01*
X163754600Y-68207840D01*
X163754600Y-66107780D01*
X163854600Y-66107780D01*
X163854600Y-68207840D01*
X165604660Y-68207840D01*
X166423646Y-68025042D01*
X167110337Y-67542747D01*
X167258144Y-67310000D01*
X184484259Y-67310000D01*
X184580445Y-67793559D01*
X184854359Y-68203500D01*
X185264300Y-68477414D01*
X185747859Y-68573600D01*
X186108141Y-68573600D01*
X186591700Y-68477414D01*
X187001641Y-68203500D01*
X187275555Y-67793559D01*
X187371741Y-67310000D01*
X187275555Y-66826441D01*
X187001641Y-66416500D01*
X186591700Y-66142586D01*
X186108141Y-66046400D01*
X185747859Y-66046400D01*
X185264300Y-66142586D01*
X184854359Y-66416500D01*
X184580445Y-66826441D01*
X184484259Y-67310000D01*
X167258144Y-67310000D01*
X167560190Y-66834379D01*
X167669854Y-66443417D01*
X167604110Y-66107780D01*
X163854600Y-66107780D01*
X163754600Y-66107780D01*
X160005090Y-66107780D01*
X159939346Y-66443417D01*
X155923000Y-66443417D01*
X155923000Y-65672143D01*
X159939346Y-65672143D01*
X160005090Y-66007780D01*
X163754600Y-66007780D01*
X163754600Y-63907720D01*
X163854600Y-63907720D01*
X163854600Y-66007780D01*
X167604110Y-66007780D01*
X167669854Y-65672143D01*
X167560190Y-65281181D01*
X167235562Y-64770000D01*
X184484259Y-64770000D01*
X184580445Y-65253559D01*
X184854359Y-65663500D01*
X185264300Y-65937414D01*
X185747859Y-66033600D01*
X186108141Y-66033600D01*
X186591700Y-65937414D01*
X187001641Y-65663500D01*
X187275555Y-65253559D01*
X187371741Y-64770000D01*
X187275555Y-64286441D01*
X187001641Y-63876500D01*
X186591700Y-63602586D01*
X186108141Y-63506400D01*
X185747859Y-63506400D01*
X185264300Y-63602586D01*
X184854359Y-63876500D01*
X184580445Y-64286441D01*
X184484259Y-64770000D01*
X167235562Y-64770000D01*
X167110337Y-64572813D01*
X166423646Y-64090518D01*
X165604660Y-63907720D01*
X163854600Y-63907720D01*
X163754600Y-63907720D01*
X162004540Y-63907720D01*
X161185554Y-64090518D01*
X160498863Y-64572813D01*
X160049010Y-65281181D01*
X159939346Y-65672143D01*
X155923000Y-65672143D01*
X155923000Y-63696318D01*
X166443206Y-63696318D01*
X166491798Y-63872425D01*
X166735726Y-64272604D01*
X167114228Y-64548974D01*
X167569680Y-64659460D01*
X168019260Y-64659460D01*
X168019260Y-63509360D01*
X168119260Y-63509360D01*
X168119260Y-64659460D01*
X168568840Y-64659460D01*
X169024292Y-64548974D01*
X169402794Y-64272604D01*
X169646722Y-63872425D01*
X169695314Y-63696318D01*
X169617803Y-63509360D01*
X168119260Y-63509360D01*
X168019260Y-63509360D01*
X166520717Y-63509360D01*
X166443206Y-63696318D01*
X155923000Y-63696318D01*
X155923000Y-63222402D01*
X166443206Y-63222402D01*
X166520717Y-63409360D01*
X168019260Y-63409360D01*
X168019260Y-62259260D01*
X168119260Y-62259260D01*
X168119260Y-63409360D01*
X169617803Y-63409360D01*
X169695314Y-63222402D01*
X169646722Y-63046295D01*
X169402794Y-62646116D01*
X169024292Y-62369746D01*
X168568840Y-62259260D01*
X168119260Y-62259260D01*
X168019260Y-62259260D01*
X167569680Y-62259260D01*
X167114228Y-62369746D01*
X166735726Y-62646116D01*
X166491798Y-63046295D01*
X166443206Y-63222402D01*
X155923000Y-63222402D01*
X155923000Y-62230000D01*
X184484259Y-62230000D01*
X184580445Y-62713559D01*
X184854359Y-63123500D01*
X185264300Y-63397414D01*
X185747859Y-63493600D01*
X186108141Y-63493600D01*
X186591700Y-63397414D01*
X187001641Y-63123500D01*
X187275555Y-62713559D01*
X187371741Y-62230000D01*
X187275555Y-61746441D01*
X187001641Y-61336500D01*
X186591700Y-61062586D01*
X186108141Y-60966400D01*
X185747859Y-60966400D01*
X185264300Y-61062586D01*
X184854359Y-61336500D01*
X184580445Y-61746441D01*
X184484259Y-62230000D01*
X155923000Y-62230000D01*
X155923000Y-60960000D01*
X166387261Y-60960000D01*
X166478613Y-61419258D01*
X166738762Y-61808599D01*
X167128103Y-62068748D01*
X167587361Y-62160100D01*
X168551159Y-62160100D01*
X169010417Y-62068748D01*
X169399758Y-61808599D01*
X169659907Y-61419258D01*
X169751259Y-60960000D01*
X169659907Y-60500742D01*
X169399758Y-60111401D01*
X169010417Y-59851252D01*
X168551159Y-59759900D01*
X167587361Y-59759900D01*
X167128103Y-59851252D01*
X166738762Y-60111401D01*
X166478613Y-60500742D01*
X166387261Y-60960000D01*
X155923000Y-60960000D01*
X155923000Y-59690000D01*
X184484259Y-59690000D01*
X184580445Y-60173559D01*
X184854359Y-60583500D01*
X185264300Y-60857414D01*
X185747859Y-60953600D01*
X186108141Y-60953600D01*
X186591700Y-60857414D01*
X187001641Y-60583500D01*
X187275555Y-60173559D01*
X187371741Y-59690000D01*
X187275555Y-59206441D01*
X187001641Y-58796500D01*
X186591700Y-58522586D01*
X186108141Y-58426400D01*
X185747859Y-58426400D01*
X185264300Y-58522586D01*
X184854359Y-58796500D01*
X184580445Y-59206441D01*
X184484259Y-59690000D01*
X155923000Y-59690000D01*
X155923000Y-56245317D01*
X159939346Y-56245317D01*
X160049010Y-56636279D01*
X160498863Y-57344647D01*
X161185554Y-57826942D01*
X162004540Y-58009740D01*
X163754600Y-58009740D01*
X163754600Y-55909680D01*
X163854600Y-55909680D01*
X163854600Y-58009740D01*
X165604660Y-58009740D01*
X166423646Y-57826942D01*
X167035939Y-57396900D01*
X184536357Y-57396900D01*
X184589051Y-57587365D01*
X184846744Y-58008145D01*
X185245847Y-58298280D01*
X185725600Y-58413600D01*
X185878000Y-58413600D01*
X185878000Y-57200000D01*
X185978000Y-57200000D01*
X185978000Y-58413600D01*
X186130400Y-58413600D01*
X186610153Y-58298280D01*
X187009256Y-58008145D01*
X187266949Y-57587365D01*
X187319643Y-57396900D01*
X187242925Y-57200000D01*
X185978000Y-57200000D01*
X185878000Y-57200000D01*
X184613075Y-57200000D01*
X184536357Y-57396900D01*
X167035939Y-57396900D01*
X167110337Y-57344647D01*
X167390743Y-56903100D01*
X184536357Y-56903100D01*
X184613075Y-57100000D01*
X185878000Y-57100000D01*
X185878000Y-55886400D01*
X185978000Y-55886400D01*
X185978000Y-57100000D01*
X187242925Y-57100000D01*
X187319643Y-56903100D01*
X187266949Y-56712635D01*
X187009256Y-56291855D01*
X186610153Y-56001720D01*
X186130400Y-55886400D01*
X185978000Y-55886400D01*
X185878000Y-55886400D01*
X185725600Y-55886400D01*
X185245847Y-56001720D01*
X184846744Y-56291855D01*
X184589051Y-56712635D01*
X184536357Y-56903100D01*
X167390743Y-56903100D01*
X167560190Y-56636279D01*
X167669854Y-56245317D01*
X167604110Y-55909680D01*
X163854600Y-55909680D01*
X163754600Y-55909680D01*
X160005090Y-55909680D01*
X159939346Y-56245317D01*
X155923000Y-56245317D01*
X155923000Y-55474043D01*
X159939346Y-55474043D01*
X160005090Y-55809680D01*
X163754600Y-55809680D01*
X163754600Y-53709620D01*
X163854600Y-53709620D01*
X163854600Y-55809680D01*
X167604110Y-55809680D01*
X167669854Y-55474043D01*
X167560190Y-55083081D01*
X167110337Y-54374713D01*
X166423646Y-53892418D01*
X165769445Y-53746400D01*
X184504164Y-53746400D01*
X184504164Y-55473600D01*
X184532056Y-55621831D01*
X184619660Y-55757972D01*
X184753329Y-55849304D01*
X184912000Y-55881436D01*
X186944000Y-55881436D01*
X187092231Y-55853544D01*
X187228372Y-55765940D01*
X187319704Y-55632271D01*
X187351836Y-55473600D01*
X187351836Y-53746400D01*
X187323944Y-53598169D01*
X187236340Y-53462028D01*
X187102671Y-53370696D01*
X186944000Y-53338564D01*
X184912000Y-53338564D01*
X184763769Y-53366456D01*
X184627628Y-53454060D01*
X184536296Y-53587729D01*
X184504164Y-53746400D01*
X165769445Y-53746400D01*
X165604660Y-53709620D01*
X163854600Y-53709620D01*
X163754600Y-53709620D01*
X162004540Y-53709620D01*
X161185554Y-53892418D01*
X160498863Y-54374713D01*
X160049010Y-55083081D01*
X159939346Y-55474043D01*
X155923000Y-55474043D01*
X155923000Y-51275000D01*
X187993000Y-51275000D01*
X187993000Y-70645000D01*
X187993000Y-70645000D01*
G37*
X187993000Y-70645000D02*
X155923000Y-70645000D01*
X155923000Y-66443417D01*
X159939346Y-66443417D01*
X160049010Y-66834379D01*
X160498863Y-67542747D01*
X161185554Y-68025042D01*
X162004540Y-68207840D01*
X163754600Y-68207840D01*
X163754600Y-66107780D01*
X163854600Y-66107780D01*
X163854600Y-68207840D01*
X165604660Y-68207840D01*
X166423646Y-68025042D01*
X167110337Y-67542747D01*
X167258144Y-67310000D01*
X184484259Y-67310000D01*
X184580445Y-67793559D01*
X184854359Y-68203500D01*
X185264300Y-68477414D01*
X185747859Y-68573600D01*
X186108141Y-68573600D01*
X186591700Y-68477414D01*
X187001641Y-68203500D01*
X187275555Y-67793559D01*
X187371741Y-67310000D01*
X187275555Y-66826441D01*
X187001641Y-66416500D01*
X186591700Y-66142586D01*
X186108141Y-66046400D01*
X185747859Y-66046400D01*
X185264300Y-66142586D01*
X184854359Y-66416500D01*
X184580445Y-66826441D01*
X184484259Y-67310000D01*
X167258144Y-67310000D01*
X167560190Y-66834379D01*
X167669854Y-66443417D01*
X167604110Y-66107780D01*
X163854600Y-66107780D01*
X163754600Y-66107780D01*
X160005090Y-66107780D01*
X159939346Y-66443417D01*
X155923000Y-66443417D01*
X155923000Y-65672143D01*
X159939346Y-65672143D01*
X160005090Y-66007780D01*
X163754600Y-66007780D01*
X163754600Y-63907720D01*
X163854600Y-63907720D01*
X163854600Y-66007780D01*
X167604110Y-66007780D01*
X167669854Y-65672143D01*
X167560190Y-65281181D01*
X167235562Y-64770000D01*
X184484259Y-64770000D01*
X184580445Y-65253559D01*
X184854359Y-65663500D01*
X185264300Y-65937414D01*
X185747859Y-66033600D01*
X186108141Y-66033600D01*
X186591700Y-65937414D01*
X187001641Y-65663500D01*
X187275555Y-65253559D01*
X187371741Y-64770000D01*
X187275555Y-64286441D01*
X187001641Y-63876500D01*
X186591700Y-63602586D01*
X186108141Y-63506400D01*
X185747859Y-63506400D01*
X185264300Y-63602586D01*
X184854359Y-63876500D01*
X184580445Y-64286441D01*
X184484259Y-64770000D01*
X167235562Y-64770000D01*
X167110337Y-64572813D01*
X166423646Y-64090518D01*
X165604660Y-63907720D01*
X163854600Y-63907720D01*
X163754600Y-63907720D01*
X162004540Y-63907720D01*
X161185554Y-64090518D01*
X160498863Y-64572813D01*
X160049010Y-65281181D01*
X159939346Y-65672143D01*
X155923000Y-65672143D01*
X155923000Y-63696318D01*
X166443206Y-63696318D01*
X166491798Y-63872425D01*
X166735726Y-64272604D01*
X167114228Y-64548974D01*
X167569680Y-64659460D01*
X168019260Y-64659460D01*
X168019260Y-63509360D01*
X168119260Y-63509360D01*
X168119260Y-64659460D01*
X168568840Y-64659460D01*
X169024292Y-64548974D01*
X169402794Y-64272604D01*
X169646722Y-63872425D01*
X169695314Y-63696318D01*
X169617803Y-63509360D01*
X168119260Y-63509360D01*
X168019260Y-63509360D01*
X166520717Y-63509360D01*
X166443206Y-63696318D01*
X155923000Y-63696318D01*
X155923000Y-63222402D01*
X166443206Y-63222402D01*
X166520717Y-63409360D01*
X168019260Y-63409360D01*
X168019260Y-62259260D01*
X168119260Y-62259260D01*
X168119260Y-63409360D01*
X169617803Y-63409360D01*
X169695314Y-63222402D01*
X169646722Y-63046295D01*
X169402794Y-62646116D01*
X169024292Y-62369746D01*
X168568840Y-62259260D01*
X168119260Y-62259260D01*
X168019260Y-62259260D01*
X167569680Y-62259260D01*
X167114228Y-62369746D01*
X166735726Y-62646116D01*
X166491798Y-63046295D01*
X166443206Y-63222402D01*
X155923000Y-63222402D01*
X155923000Y-62230000D01*
X184484259Y-62230000D01*
X184580445Y-62713559D01*
X184854359Y-63123500D01*
X185264300Y-63397414D01*
X185747859Y-63493600D01*
X186108141Y-63493600D01*
X186591700Y-63397414D01*
X187001641Y-63123500D01*
X187275555Y-62713559D01*
X187371741Y-62230000D01*
X187275555Y-61746441D01*
X187001641Y-61336500D01*
X186591700Y-61062586D01*
X186108141Y-60966400D01*
X185747859Y-60966400D01*
X185264300Y-61062586D01*
X184854359Y-61336500D01*
X184580445Y-61746441D01*
X184484259Y-62230000D01*
X155923000Y-62230000D01*
X155923000Y-60960000D01*
X166387261Y-60960000D01*
X166478613Y-61419258D01*
X166738762Y-61808599D01*
X167128103Y-62068748D01*
X167587361Y-62160100D01*
X168551159Y-62160100D01*
X169010417Y-62068748D01*
X169399758Y-61808599D01*
X169659907Y-61419258D01*
X169751259Y-60960000D01*
X169659907Y-60500742D01*
X169399758Y-60111401D01*
X169010417Y-59851252D01*
X168551159Y-59759900D01*
X167587361Y-59759900D01*
X167128103Y-59851252D01*
X166738762Y-60111401D01*
X166478613Y-60500742D01*
X166387261Y-60960000D01*
X155923000Y-60960000D01*
X155923000Y-59690000D01*
X184484259Y-59690000D01*
X184580445Y-60173559D01*
X184854359Y-60583500D01*
X185264300Y-60857414D01*
X185747859Y-60953600D01*
X186108141Y-60953600D01*
X186591700Y-60857414D01*
X187001641Y-60583500D01*
X187275555Y-60173559D01*
X187371741Y-59690000D01*
X187275555Y-59206441D01*
X187001641Y-58796500D01*
X186591700Y-58522586D01*
X186108141Y-58426400D01*
X185747859Y-58426400D01*
X185264300Y-58522586D01*
X184854359Y-58796500D01*
X184580445Y-59206441D01*
X184484259Y-59690000D01*
X155923000Y-59690000D01*
X155923000Y-56245317D01*
X159939346Y-56245317D01*
X160049010Y-56636279D01*
X160498863Y-57344647D01*
X161185554Y-57826942D01*
X162004540Y-58009740D01*
X163754600Y-58009740D01*
X163754600Y-55909680D01*
X163854600Y-55909680D01*
X163854600Y-58009740D01*
X165604660Y-58009740D01*
X166423646Y-57826942D01*
X167035939Y-57396900D01*
X184536357Y-57396900D01*
X184589051Y-57587365D01*
X184846744Y-58008145D01*
X185245847Y-58298280D01*
X185725600Y-58413600D01*
X185878000Y-58413600D01*
X185878000Y-57200000D01*
X185978000Y-57200000D01*
X185978000Y-58413600D01*
X186130400Y-58413600D01*
X186610153Y-58298280D01*
X187009256Y-58008145D01*
X187266949Y-57587365D01*
X187319643Y-57396900D01*
X187242925Y-57200000D01*
X185978000Y-57200000D01*
X185878000Y-57200000D01*
X184613075Y-57200000D01*
X184536357Y-57396900D01*
X167035939Y-57396900D01*
X167110337Y-57344647D01*
X167390743Y-56903100D01*
X184536357Y-56903100D01*
X184613075Y-57100000D01*
X185878000Y-57100000D01*
X185878000Y-55886400D01*
X185978000Y-55886400D01*
X185978000Y-57100000D01*
X187242925Y-57100000D01*
X187319643Y-56903100D01*
X187266949Y-56712635D01*
X187009256Y-56291855D01*
X186610153Y-56001720D01*
X186130400Y-55886400D01*
X185978000Y-55886400D01*
X185878000Y-55886400D01*
X185725600Y-55886400D01*
X185245847Y-56001720D01*
X184846744Y-56291855D01*
X184589051Y-56712635D01*
X184536357Y-56903100D01*
X167390743Y-56903100D01*
X167560190Y-56636279D01*
X167669854Y-56245317D01*
X167604110Y-55909680D01*
X163854600Y-55909680D01*
X163754600Y-55909680D01*
X160005090Y-55909680D01*
X159939346Y-56245317D01*
X155923000Y-56245317D01*
X155923000Y-55474043D01*
X159939346Y-55474043D01*
X160005090Y-55809680D01*
X163754600Y-55809680D01*
X163754600Y-53709620D01*
X163854600Y-53709620D01*
X163854600Y-55809680D01*
X167604110Y-55809680D01*
X167669854Y-55474043D01*
X167560190Y-55083081D01*
X167110337Y-54374713D01*
X166423646Y-53892418D01*
X165769445Y-53746400D01*
X184504164Y-53746400D01*
X184504164Y-55473600D01*
X184532056Y-55621831D01*
X184619660Y-55757972D01*
X184753329Y-55849304D01*
X184912000Y-55881436D01*
X186944000Y-55881436D01*
X187092231Y-55853544D01*
X187228372Y-55765940D01*
X187319704Y-55632271D01*
X187351836Y-55473600D01*
X187351836Y-53746400D01*
X187323944Y-53598169D01*
X187236340Y-53462028D01*
X187102671Y-53370696D01*
X186944000Y-53338564D01*
X184912000Y-53338564D01*
X184763769Y-53366456D01*
X184627628Y-53454060D01*
X184536296Y-53587729D01*
X184504164Y-53746400D01*
X165769445Y-53746400D01*
X165604660Y-53709620D01*
X163854600Y-53709620D01*
X163754600Y-53709620D01*
X162004540Y-53709620D01*
X161185554Y-53892418D01*
X160498863Y-54374713D01*
X160049010Y-55083081D01*
X159939346Y-55474043D01*
X155923000Y-55474043D01*
X155923000Y-51275000D01*
X187993000Y-51275000D01*
X187993000Y-70645000D01*
M02*
