G04 #@! TF.FileFunction,Soldermask,Bot*
%FSLAX46Y46*%
G04 Gerber Fmt 4.6, Leading zero omitted, Abs format (unit mm)*
G04 Created by KiCad (PCBNEW 4.0.5) date Wed Jan  4 06:15:25 2017*
%MOMM*%
%LPD*%
G01*
G04 APERTURE LIST*
%ADD10C,0.100000*%
%ADD11R,2.432000X2.127200*%
%ADD12O,2.432000X2.127200*%
%ADD13O,7.400240X3.900120*%
%ADD14O,2.899360X2.000200*%
G04 APERTURE END LIST*
D10*
D11*
X185928000Y-54610000D03*
D12*
X185928000Y-57150000D03*
X185928000Y-59690000D03*
X185928000Y-62230000D03*
X185928000Y-64770000D03*
X185928000Y-67310000D03*
D13*
X163804600Y-66057780D03*
X163804600Y-55859680D03*
D14*
X168069260Y-60960000D03*
X168069260Y-63459360D03*
M02*
