G04 #@! TF.FileFunction,Legend,Top*
%FSLAX46Y46*%
G04 Gerber Fmt 4.6, Leading zero omitted, Abs format (unit mm)*
G04 Created by KiCad (PCBNEW 4.0.5) date Wed Jan  4 06:15:25 2017*
%MOMM*%
%LPD*%
G01*
G04 APERTURE LIST*
%ADD10C,0.100000*%
%ADD11C,0.150000*%
%ADD12C,0.300000*%
G04 APERTURE END LIST*
D10*
X175619857Y-69964429D02*
X175619857Y-69564429D01*
X175619857Y-69678714D02*
X175648429Y-69621571D01*
X175677000Y-69593000D01*
X175734143Y-69564429D01*
X175791286Y-69564429D01*
X176105572Y-69364429D02*
X176162715Y-69364429D01*
X176219858Y-69393000D01*
X176248429Y-69421571D01*
X176277000Y-69478714D01*
X176305572Y-69593000D01*
X176305572Y-69735857D01*
X176277000Y-69850143D01*
X176248429Y-69907286D01*
X176219858Y-69935857D01*
X176162715Y-69964429D01*
X176105572Y-69964429D01*
X176048429Y-69935857D01*
X176019858Y-69907286D01*
X175991286Y-69850143D01*
X175962715Y-69735857D01*
X175962715Y-69593000D01*
X175991286Y-69478714D01*
X176019858Y-69421571D01*
X176048429Y-69393000D01*
X176105572Y-69364429D01*
X176562715Y-69907286D02*
X176591287Y-69935857D01*
X176562715Y-69964429D01*
X176534144Y-69935857D01*
X176562715Y-69907286D01*
X176562715Y-69964429D01*
X177162715Y-69964429D02*
X176819858Y-69964429D01*
X176991286Y-69964429D02*
X176991286Y-69364429D01*
X176934143Y-69450143D01*
X176877001Y-69507286D01*
X176819858Y-69535857D01*
D11*
X182642902Y-54067461D02*
X182833379Y-54067461D01*
X182928617Y-54115080D01*
X183023855Y-54210318D01*
X183071474Y-54400794D01*
X183071474Y-54734128D01*
X183023855Y-54924604D01*
X182928617Y-55019842D01*
X182833379Y-55067461D01*
X182642902Y-55067461D01*
X182547664Y-55019842D01*
X182452426Y-54924604D01*
X182404807Y-54734128D01*
X182404807Y-54400794D01*
X182452426Y-54210318D01*
X182547664Y-54115080D01*
X182642902Y-54067461D01*
X183500045Y-55067461D02*
X183500045Y-54067461D01*
X183880998Y-54067461D01*
X183976236Y-54115080D01*
X184023855Y-54162699D01*
X184071474Y-54257937D01*
X184071474Y-54400794D01*
X184023855Y-54496032D01*
X183976236Y-54543651D01*
X183880998Y-54591270D01*
X183500045Y-54591270D01*
X181360606Y-62291269D02*
X182122511Y-62291269D01*
X181741559Y-62672221D02*
X181741559Y-61910316D01*
X183074892Y-61672221D02*
X182598701Y-61672221D01*
X182551082Y-62148411D01*
X182598701Y-62100792D01*
X182693939Y-62053173D01*
X182932035Y-62053173D01*
X183027273Y-62100792D01*
X183074892Y-62148411D01*
X183122511Y-62243650D01*
X183122511Y-62481745D01*
X183074892Y-62576983D01*
X183027273Y-62624602D01*
X182932035Y-62672221D01*
X182693939Y-62672221D01*
X182598701Y-62624602D01*
X182551082Y-62576983D01*
X183408225Y-61672221D02*
X183741558Y-62672221D01*
X184074892Y-61672221D01*
X181355526Y-64808409D02*
X182117431Y-64808409D01*
X183069812Y-64189361D02*
X182593621Y-64189361D01*
X182546002Y-64665551D01*
X182593621Y-64617932D01*
X182688859Y-64570313D01*
X182926955Y-64570313D01*
X183022193Y-64617932D01*
X183069812Y-64665551D01*
X183117431Y-64760790D01*
X183117431Y-64998885D01*
X183069812Y-65094123D01*
X183022193Y-65141742D01*
X182926955Y-65189361D01*
X182688859Y-65189361D01*
X182593621Y-65141742D01*
X182546002Y-65094123D01*
X183403145Y-64189361D02*
X183736478Y-65189361D01*
X184069812Y-64189361D01*
X181968236Y-56647460D02*
X181872998Y-56599841D01*
X181730141Y-56599841D01*
X181587283Y-56647460D01*
X181492045Y-56742698D01*
X181444426Y-56837936D01*
X181396807Y-57028412D01*
X181396807Y-57171270D01*
X181444426Y-57361746D01*
X181492045Y-57456984D01*
X181587283Y-57552222D01*
X181730141Y-57599841D01*
X181825379Y-57599841D01*
X181968236Y-57552222D01*
X182015855Y-57504603D01*
X182015855Y-57171270D01*
X181825379Y-57171270D01*
X182444426Y-57599841D02*
X182444426Y-56599841D01*
X183015855Y-57599841D01*
X183015855Y-56599841D01*
X183492045Y-57599841D02*
X183492045Y-56599841D01*
X183730140Y-56599841D01*
X183872998Y-56647460D01*
X183968236Y-56742698D01*
X184015855Y-56837936D01*
X184063474Y-57028412D01*
X184063474Y-57171270D01*
X184015855Y-57361746D01*
X183968236Y-57456984D01*
X183872998Y-57552222D01*
X183730140Y-57599841D01*
X183492045Y-57599841D01*
D12*
X171515572Y-66917286D02*
X171515572Y-68717286D01*
X171515572Y-67003000D02*
X171687001Y-66917286D01*
X172029858Y-66917286D01*
X172201287Y-67003000D01*
X172287001Y-67088714D01*
X172372715Y-67260143D01*
X172372715Y-67774429D01*
X172287001Y-67945857D01*
X172201287Y-68031571D01*
X172029858Y-68117286D01*
X171687001Y-68117286D01*
X171515572Y-68031571D01*
X173144143Y-68117286D02*
X173144143Y-66317286D01*
X173144143Y-67174429D02*
X174172715Y-67174429D01*
X174172715Y-68117286D02*
X174172715Y-66317286D01*
X176401286Y-68117286D02*
X176401286Y-66317286D01*
X177087001Y-66317286D01*
X177258429Y-66403000D01*
X177344144Y-66488714D01*
X177429858Y-66660143D01*
X177429858Y-66917286D01*
X177344144Y-67088714D01*
X177258429Y-67174429D01*
X177087001Y-67260143D01*
X176401286Y-67260143D01*
X178201286Y-68117286D02*
X178201286Y-66917286D01*
X178201286Y-67260143D02*
X178287001Y-67088714D01*
X178372715Y-67003000D01*
X178544144Y-66917286D01*
X178715572Y-66917286D01*
X179572715Y-68117286D02*
X179401287Y-68031571D01*
X179315572Y-67945857D01*
X179229858Y-67774429D01*
X179229858Y-67260143D01*
X179315572Y-67088714D01*
X179401287Y-67003000D01*
X179572715Y-66917286D01*
X179829858Y-66917286D01*
X180001287Y-67003000D01*
X180087001Y-67088714D01*
X180172715Y-67260143D01*
X180172715Y-67774429D01*
X180087001Y-67945857D01*
X180001287Y-68031571D01*
X179829858Y-68117286D01*
X179572715Y-68117286D01*
X180944143Y-68117286D02*
X180944143Y-66317286D01*
X180944143Y-67003000D02*
X181115572Y-66917286D01*
X181458429Y-66917286D01*
X181629858Y-67003000D01*
X181715572Y-67088714D01*
X181801286Y-67260143D01*
X181801286Y-67774429D01*
X181715572Y-67945857D01*
X181629858Y-68031571D01*
X181458429Y-68117286D01*
X181115572Y-68117286D01*
X180944143Y-68031571D01*
X183258429Y-68031571D02*
X183087000Y-68117286D01*
X182744143Y-68117286D01*
X182572714Y-68031571D01*
X182487000Y-67860143D01*
X182487000Y-67174429D01*
X182572714Y-67003000D01*
X182744143Y-66917286D01*
X183087000Y-66917286D01*
X183258429Y-67003000D01*
X183344143Y-67174429D01*
X183344143Y-67345857D01*
X182487000Y-67517286D01*
D11*
X187198000Y-55880000D02*
X187198000Y-68580000D01*
X187198000Y-68580000D02*
X184658000Y-68580000D01*
X184658000Y-68580000D02*
X184658000Y-55880000D01*
X187478000Y-53060000D02*
X187478000Y-54610000D01*
X187198000Y-55880000D02*
X184658000Y-55880000D01*
X184378000Y-54610000D02*
X184378000Y-53060000D01*
X184378000Y-53060000D02*
X187478000Y-53060000D01*
X176207800Y-52792000D02*
X177207800Y-52792000D01*
X177207800Y-54142000D02*
X176207800Y-54142000D01*
X177182400Y-56453400D02*
X176182400Y-56453400D01*
X176182400Y-55103400D02*
X177182400Y-55103400D01*
X177305260Y-54324220D02*
X176105260Y-54324220D01*
X176105260Y-52574220D02*
X177305260Y-52574220D01*
X176097640Y-54908480D02*
X177297640Y-54908480D01*
X177297640Y-56658480D02*
X176097640Y-56658480D01*
X174455000Y-57750000D02*
X174455000Y-57895000D01*
X178605000Y-57750000D02*
X178605000Y-57895000D01*
X178605000Y-62900000D02*
X178605000Y-62755000D01*
X174455000Y-62900000D02*
X174455000Y-62755000D01*
X174455000Y-57750000D02*
X178605000Y-57750000D01*
X174455000Y-62900000D02*
X178605000Y-62900000D01*
X174455000Y-57895000D02*
X173055000Y-57895000D01*
X151267160Y-66459100D02*
X150467060Y-55460900D01*
X152067260Y-66459100D02*
X151267160Y-55460900D01*
X152867360Y-66459100D02*
X152067260Y-55460900D01*
X153667460Y-66459100D02*
X152867360Y-55460900D01*
X154467560Y-66459100D02*
X153667460Y-55460900D01*
X155267660Y-66459100D02*
X154467560Y-55460900D01*
X141368780Y-60960000D02*
G75*
G03X141368780Y-60960000I-1000760J0D01*
G01*
X148369020Y-56159400D02*
X136367520Y-56159400D01*
X136367520Y-56159400D02*
X136367520Y-65760600D01*
X136367520Y-65760600D02*
X148369020Y-65760600D01*
X155867100Y-55460900D02*
X148369020Y-55460900D01*
X148369020Y-55460900D02*
X148369020Y-66459100D01*
X148369020Y-66459100D02*
X155867100Y-66459100D01*
X170268900Y-68760340D02*
X170268900Y-53159660D01*
X170268900Y-53159660D02*
X155867100Y-53159660D01*
X155867100Y-53159660D02*
X155867100Y-68760340D01*
X155867100Y-68760340D02*
X170268900Y-68760340D01*
D10*
X185485143Y-52341429D02*
X185485143Y-51741429D01*
X185713715Y-51741429D01*
X185770857Y-51770000D01*
X185799429Y-51798571D01*
X185828000Y-51855714D01*
X185828000Y-51941429D01*
X185799429Y-51998571D01*
X185770857Y-52027143D01*
X185713715Y-52055714D01*
X185485143Y-52055714D01*
X186056572Y-51798571D02*
X186085143Y-51770000D01*
X186142286Y-51741429D01*
X186285143Y-51741429D01*
X186342286Y-51770000D01*
X186370857Y-51798571D01*
X186399429Y-51855714D01*
X186399429Y-51912857D01*
X186370857Y-51998571D01*
X186028000Y-52341429D01*
X186399429Y-52341429D01*
X173001000Y-53738429D02*
X172801000Y-53452714D01*
X172658143Y-53738429D02*
X172658143Y-53138429D01*
X172886715Y-53138429D01*
X172943857Y-53167000D01*
X172972429Y-53195571D01*
X173001000Y-53252714D01*
X173001000Y-53338429D01*
X172972429Y-53395571D01*
X172943857Y-53424143D01*
X172886715Y-53452714D01*
X172658143Y-53452714D01*
X173572429Y-53738429D02*
X173229572Y-53738429D01*
X173401000Y-53738429D02*
X173401000Y-53138429D01*
X173343857Y-53224143D01*
X173286715Y-53281286D01*
X173229572Y-53309857D01*
X173001000Y-56024429D02*
X172801000Y-55738714D01*
X172658143Y-56024429D02*
X172658143Y-55424429D01*
X172886715Y-55424429D01*
X172943857Y-55453000D01*
X172972429Y-55481571D01*
X173001000Y-55538714D01*
X173001000Y-55624429D01*
X172972429Y-55681571D01*
X172943857Y-55710143D01*
X172886715Y-55738714D01*
X172658143Y-55738714D01*
X173229572Y-55481571D02*
X173258143Y-55453000D01*
X173315286Y-55424429D01*
X173458143Y-55424429D01*
X173515286Y-55453000D01*
X173543857Y-55481571D01*
X173572429Y-55538714D01*
X173572429Y-55595857D01*
X173543857Y-55681571D01*
X173201000Y-56024429D01*
X173572429Y-56024429D01*
X180113000Y-53738429D02*
X179913000Y-53452714D01*
X179770143Y-53738429D02*
X179770143Y-53138429D01*
X179998715Y-53138429D01*
X180055857Y-53167000D01*
X180084429Y-53195571D01*
X180113000Y-53252714D01*
X180113000Y-53338429D01*
X180084429Y-53395571D01*
X180055857Y-53424143D01*
X179998715Y-53452714D01*
X179770143Y-53452714D01*
X180313000Y-53138429D02*
X180684429Y-53138429D01*
X180484429Y-53367000D01*
X180570143Y-53367000D01*
X180627286Y-53395571D01*
X180655857Y-53424143D01*
X180684429Y-53481286D01*
X180684429Y-53624143D01*
X180655857Y-53681286D01*
X180627286Y-53709857D01*
X180570143Y-53738429D01*
X180398715Y-53738429D01*
X180341572Y-53709857D01*
X180313000Y-53681286D01*
D11*
X180113000Y-56151429D02*
X179913000Y-55865714D01*
X179770143Y-56151429D02*
X179770143Y-55551429D01*
X179998715Y-55551429D01*
X180055857Y-55580000D01*
X180084429Y-55608571D01*
X180113000Y-55665714D01*
X180113000Y-55751429D01*
X180084429Y-55808571D01*
X180055857Y-55837143D01*
X179998715Y-55865714D01*
X179770143Y-55865714D01*
X180627286Y-55751429D02*
X180627286Y-56151429D01*
X180484429Y-55522857D02*
X180341572Y-55951429D01*
X180713000Y-55951429D01*
D10*
X176072857Y-63552429D02*
X176072857Y-64038143D01*
X176101429Y-64095286D01*
X176130000Y-64123857D01*
X176187143Y-64152429D01*
X176301429Y-64152429D01*
X176358571Y-64123857D01*
X176387143Y-64095286D01*
X176415714Y-64038143D01*
X176415714Y-63552429D01*
X177015714Y-64152429D02*
X176672857Y-64152429D01*
X176844285Y-64152429D02*
X176844285Y-63552429D01*
X176787142Y-63638143D01*
X176730000Y-63695286D01*
X176672857Y-63723857D01*
X170987369Y-52822737D02*
X170387369Y-52822737D01*
X170387369Y-52594165D01*
X170415940Y-52537023D01*
X170444511Y-52508451D01*
X170501654Y-52479880D01*
X170587369Y-52479880D01*
X170644511Y-52508451D01*
X170673083Y-52537023D01*
X170701654Y-52594165D01*
X170701654Y-52822737D01*
X170987369Y-51908451D02*
X170987369Y-52251308D01*
X170987369Y-52079880D02*
X170387369Y-52079880D01*
X170473083Y-52137023D01*
X170530226Y-52194165D01*
X170558797Y-52251308D01*
M02*
