G04 #@! TF.FileFunction,Paste,Top*
%FSLAX46Y46*%
G04 Gerber Fmt 4.6, Leading zero omitted, Abs format (unit mm)*
G04 Created by KiCad (PCBNEW 4.0.5) date Wed Jan  4 06:15:25 2017*
%MOMM*%
%LPD*%
G01*
G04 APERTURE LIST*
%ADD10C,0.100000*%
%ADD11R,1.200000X0.900000*%
%ADD12R,1.500000X1.300000*%
%ADD13R,1.550000X0.600000*%
G04 APERTURE END LIST*
D10*
D11*
X177807800Y-53467000D03*
X175607800Y-53467000D03*
X175582400Y-55778400D03*
X177782400Y-55778400D03*
D12*
X175355260Y-53449220D03*
X178055260Y-53449220D03*
X178047640Y-55783480D03*
X175347640Y-55783480D03*
D13*
X173830000Y-58420000D03*
X173830000Y-59690000D03*
X173830000Y-60960000D03*
X173830000Y-62230000D03*
X179230000Y-62230000D03*
X179230000Y-60960000D03*
X179230000Y-59690000D03*
X179230000Y-58420000D03*
M02*
